<svg width="1131" height="50" viewBox="0 0 1131 50" fill="none" xmlns="http://www.w3.org/2000/svg">
<rect x="0.5" y="0.5" width="49" height="49" rx="24.5" stroke="black" stroke-opacity="0.25"/>
<rect x="360.5" y="0.5" width="49" height="49" rx="24.5" stroke="black" stroke-opacity="0.25"/>
<rect x="720.5" y="0.5" width="49" height="49" rx="24.5" stroke="black" stroke-opacity="0.25"/>
<rect x="1081.5" y="0.5" width="49" height="49" rx="24.5" stroke="black" stroke-opacity="0.25"/>
<path d="M16.0323 25.7C16.0323 23.54 16.3923 21.914 17.1123 20.822C17.8323 19.73 18.8643 19.184 20.2083 19.184C21.6603 19.184 22.7223 19.724 23.3943 20.804C24.0663 21.872 24.4023 23.504 24.4023 25.7C24.4023 27.86 24.0363 29.486 23.3043 30.578C22.5843 31.67 21.5163 32.216 20.1003 32.216C19.3683 32.216 18.7443 32.072 18.2283 31.784C17.7123 31.484 17.2923 31.058 16.9683 30.506C16.6443 29.942 16.4043 29.258 16.2483 28.454C16.1043 27.65 16.0323 26.732 16.0323 25.7ZM17.7603 25.7C17.7603 26.564 17.8023 27.35 17.8863 28.058C17.9703 28.766 18.1023 29.378 18.2823 29.894C18.4743 30.398 18.7143 30.788 19.0023 31.064C19.3023 31.34 19.6623 31.478 20.0823 31.478C21.0303 31.478 21.6963 31.01 22.0803 30.074C22.4763 29.138 22.6743 27.68 22.6743 25.7C22.6743 24.836 22.6383 24.05 22.5663 23.342C22.4943 22.634 22.3623 22.028 22.1703 21.524C21.9783 21.02 21.7203 20.63 21.3963 20.354C21.0843 20.078 20.6883 19.94 20.2083 19.94C19.3083 19.94 18.6723 20.408 18.3003 21.344C17.9403 22.268 17.7603 23.72 17.7603 25.7ZM32.65 32H27.394V31.478C27.694 31.346 27.994 31.232 28.294 31.136C28.606 31.028 28.918 30.938 29.23 30.866V22.028L29.302 20.966C28.966 21.098 28.618 21.194 28.258 21.254C27.898 21.302 27.526 21.32 27.142 21.308L27.052 20.876C27.604 20.696 28.174 20.474 28.762 20.21C29.35 19.934 29.896 19.592 30.4 19.184H30.85V30.866C31.15 30.938 31.45 31.028 31.75 31.136C32.05 31.232 32.35 31.346 32.65 31.478V32Z" fill="#7EC25A"/>
<path d="M376.032 25.7C376.032 23.54 376.392 21.914 377.112 20.822C377.832 19.73 378.864 19.184 380.208 19.184C381.66 19.184 382.722 19.724 383.394 20.804C384.066 21.872 384.402 23.504 384.402 25.7C384.402 27.86 384.036 29.486 383.304 30.578C382.584 31.67 381.516 32.216 380.1 32.216C379.368 32.216 378.744 32.072 378.228 31.784C377.712 31.484 377.292 31.058 376.968 30.506C376.644 29.942 376.404 29.258 376.248 28.454C376.104 27.65 376.032 26.732 376.032 25.7ZM377.76 25.7C377.76 26.564 377.802 27.35 377.886 28.058C377.97 28.766 378.102 29.378 378.282 29.894C378.474 30.398 378.714 30.788 379.002 31.064C379.302 31.34 379.662 31.478 380.082 31.478C381.03 31.478 381.696 31.01 382.08 30.074C382.476 29.138 382.674 27.68 382.674 25.7C382.674 24.836 382.638 24.05 382.566 23.342C382.494 22.634 382.362 22.028 382.17 21.524C381.978 21.02 381.72 20.63 381.396 20.354C381.084 20.078 380.688 19.94 380.208 19.94C379.308 19.94 378.672 20.408 378.3 21.344C377.94 22.268 377.76 23.72 377.76 25.7ZM387.394 22.91H386.944C386.812 22.562 386.674 22.154 386.53 21.686C386.398 21.218 386.284 20.774 386.188 20.354C386.608 19.994 387.112 19.712 387.7 19.508C388.288 19.292 388.924 19.184 389.608 19.184C390.208 19.184 390.724 19.268 391.156 19.436C391.588 19.604 391.942 19.832 392.218 20.12C392.506 20.408 392.716 20.744 392.848 21.128C392.98 21.5 393.046 21.89 393.046 22.298C393.046 22.97 392.89 23.66 392.578 24.368C392.266 25.076 391.876 25.766 391.408 26.438C390.952 27.098 390.454 27.722 389.914 28.31C389.374 28.898 388.876 29.414 388.42 29.858L387.664 30.56V30.632L388.672 30.524H391.768L392.65 28.508H393.1C393.124 28.772 393.148 29.06 393.172 29.372C393.196 29.684 393.214 30.002 393.226 30.326C393.25 30.638 393.268 30.944 393.28 31.244C393.292 31.532 393.298 31.784 393.298 32H385.864V31.424C386.128 31.148 386.446 30.812 386.818 30.416C387.202 30.02 387.598 29.582 388.006 29.102C388.414 28.622 388.816 28.112 389.212 27.572C389.62 27.032 389.98 26.486 390.292 25.934C390.604 25.37 390.856 24.812 391.048 24.26C391.252 23.708 391.354 23.18 391.354 22.676C391.354 22.328 391.306 21.998 391.21 21.686C391.126 21.374 390.994 21.104 390.814 20.876C390.634 20.636 390.412 20.45 390.148 20.318C389.896 20.186 389.602 20.12 389.266 20.12C389.014 20.12 388.792 20.138 388.6 20.174C388.408 20.21 388.198 20.264 387.97 20.336L387.394 22.91Z" fill="#7EC25A"/>
<path d="M736.032 25.7C736.032 23.54 736.392 21.914 737.112 20.822C737.832 19.73 738.864 19.184 740.208 19.184C741.66 19.184 742.722 19.724 743.394 20.804C744.066 21.872 744.402 23.504 744.402 25.7C744.402 27.86 744.036 29.486 743.304 30.578C742.584 31.67 741.516 32.216 740.1 32.216C739.368 32.216 738.744 32.072 738.228 31.784C737.712 31.484 737.292 31.058 736.968 30.506C736.644 29.942 736.404 29.258 736.248 28.454C736.104 27.65 736.032 26.732 736.032 25.7ZM737.76 25.7C737.76 26.564 737.802 27.35 737.886 28.058C737.97 28.766 738.102 29.378 738.282 29.894C738.474 30.398 738.714 30.788 739.002 31.064C739.302 31.34 739.662 31.478 740.082 31.478C741.03 31.478 741.696 31.01 742.08 30.074C742.476 29.138 742.674 27.68 742.674 25.7C742.674 24.836 742.638 24.05 742.566 23.342C742.494 22.634 742.362 22.028 742.17 21.524C741.978 21.02 741.72 20.63 741.396 20.354C741.084 20.078 740.688 19.94 740.208 19.94C739.308 19.94 738.672 20.408 738.3 21.344C737.94 22.268 737.76 23.72 737.76 25.7ZM749.608 31.37C749.944 31.37 750.256 31.298 750.544 31.154C750.832 30.998 751.084 30.794 751.3 30.542C751.516 30.278 751.684 29.978 751.804 29.642C751.936 29.306 752.002 28.952 752.002 28.58C752.002 28.136 751.93 27.746 751.786 27.41C751.654 27.074 751.468 26.798 751.228 26.582C750.988 26.354 750.706 26.186 750.382 26.078C750.07 25.958 749.728 25.898 749.356 25.898H748.186V25.412L751.21 21.362L751.822 20.732V20.66L750.85 20.768H747.808L747.106 22.604H746.656C746.608 22.352 746.56 22.082 746.512 21.794C746.476 21.506 746.44 21.224 746.404 20.948C746.368 20.66 746.338 20.384 746.314 20.12C746.29 19.856 746.278 19.616 746.278 19.4H753.316V19.958L750.31 23.972L749.536 24.764V24.8L750.148 24.674C750.712 24.698 751.216 24.806 751.66 24.998C752.104 25.19 752.476 25.448 752.776 25.772C753.088 26.084 753.322 26.456 753.478 26.888C753.646 27.308 753.73 27.77 753.73 28.274C753.73 28.874 753.61 29.42 753.37 29.912C753.13 30.392 752.806 30.806 752.398 31.154C752.002 31.49 751.54 31.754 751.012 31.946C750.496 32.126 749.95 32.216 749.374 32.216C749.098 32.216 748.804 32.192 748.492 32.144C748.18 32.108 747.874 32.048 747.574 31.964C747.274 31.88 746.992 31.784 746.728 31.676C746.476 31.568 746.26 31.442 746.08 31.298L746.584 29.678H746.944C747.016 29.762 747.112 29.87 747.232 30.002C747.364 30.134 747.496 30.272 747.628 30.416C747.772 30.56 747.91 30.704 748.042 30.848C748.174 30.992 748.288 31.118 748.384 31.226C748.504 31.25 748.66 31.28 748.852 31.316C749.044 31.352 749.296 31.37 749.608 31.37Z" fill="#7EC25A"/>
<path d="M1097.03 25.7C1097.03 23.54 1097.39 21.914 1098.11 20.822C1098.83 19.73 1099.86 19.184 1101.21 19.184C1102.66 19.184 1103.72 19.724 1104.39 20.804C1105.07 21.872 1105.4 23.504 1105.4 25.7C1105.4 27.86 1105.04 29.486 1104.3 30.578C1103.58 31.67 1102.52 32.216 1101.1 32.216C1100.37 32.216 1099.74 32.072 1099.23 31.784C1098.71 31.484 1098.29 31.058 1097.97 30.506C1097.64 29.942 1097.4 29.258 1097.25 28.454C1097.1 27.65 1097.03 26.732 1097.03 25.7ZM1098.76 25.7C1098.76 26.564 1098.8 27.35 1098.89 28.058C1098.97 28.766 1099.1 29.378 1099.28 29.894C1099.47 30.398 1099.71 30.788 1100 31.064C1100.3 31.34 1100.66 31.478 1101.08 31.478C1102.03 31.478 1102.7 31.01 1103.08 30.074C1103.48 29.138 1103.67 27.68 1103.67 25.7C1103.67 24.836 1103.64 24.05 1103.57 23.342C1103.49 22.634 1103.36 22.028 1103.17 21.524C1102.98 21.02 1102.72 20.63 1102.4 20.354C1102.08 20.078 1101.69 19.94 1101.21 19.94C1100.31 19.94 1099.67 20.408 1099.3 21.344C1098.94 22.268 1098.76 23.72 1098.76 25.7ZM1114.59 32H1109.91V31.478C1110.49 31.274 1111.05 31.13 1111.56 31.046V28.526H1106.07V28.112L1112.73 19.184H1113.22V27.59H1115.5V28.526H1113.22V31.046C1113.69 31.142 1114.14 31.286 1114.59 31.478V32ZM1111.56 22.964L1111.76 21.668H1111.71L1111 22.964L1107.98 27.122L1107.26 27.716L1108.54 27.59H1111.56V22.964Z" fill="#7EC25A"/>
<path d="M330.354 25.3536C330.549 25.1583 330.549 24.8417 330.354 24.6464L327.172 21.4645C326.976 21.2692 326.66 21.2692 326.464 21.4645C326.269 21.6597 326.269 21.9763 326.464 22.1716L329.293 25L326.464 27.8284C326.269 28.0237 326.269 28.3403 326.464 28.5355C326.66 28.7308 326.976 28.7308 327.172 28.5355L330.354 25.3536ZM80 25.5H330V24.5H80V25.5Z" fill="black" fill-opacity="0.25"/>
<path d="M690.354 25.3536C690.549 25.1583 690.549 24.8417 690.354 24.6464L687.172 21.4645C686.976 21.2692 686.66 21.2692 686.464 21.4645C686.269 21.6597 686.269 21.9763 686.464 22.1716L689.293 25L686.464 27.8284C686.269 28.0237 686.269 28.3403 686.464 28.5355C686.66 28.7308 686.976 28.7308 687.172 28.5355L690.354 25.3536ZM440 25.5H690V24.5H440V25.5Z" fill="black" fill-opacity="0.25"/>
<path d="M1050.35 25.3536C1050.55 25.1583 1050.55 24.8417 1050.35 24.6464L1047.17 21.4645C1046.98 21.2692 1046.66 21.2692 1046.46 21.4645C1046.27 21.6597 1046.27 21.9763 1046.46 22.1716L1049.29 25L1046.46 27.8284C1046.27 28.0237 1046.27 28.3403 1046.46 28.5355C1046.66 28.7308 1046.98 28.7308 1047.17 28.5355L1050.35 25.3536ZM800 25.5H1050V24.5H800V25.5Z" fill="black" fill-opacity="0.25"/>
</svg>
