<svg width="50" height="50" viewBox="0 0 50 50" fill="none" xmlns="http://www.w3.org/2000/svg">
<g filter="url(#filter0_b)">
<rect width="50" height="50" rx="25" fill="white" fill-opacity="0.1"/>
</g>
<path fill-rule="evenodd" clip-rule="evenodd" d="M32.0024 17.9071C30.1327 16.0344 27.6417 15.003 24.991 15C19.5296 15 15.0814 19.4451 15.0814 24.9095C15.0814 26.6556 15.5368 28.3625 16.4053 29.8643L15 35L20.2533 33.6218C21.7008 34.4119 23.3293 34.8281 24.9879 34.8281H24.991C30.4524 34.8281 34.8975 30.383 34.9005 24.9186C34.9035 22.2708 33.8752 19.7799 32.0024 17.9071ZM24.994 33.1544H24.991C23.5133 33.1544 22.0627 32.7563 20.7992 32.0054L20.4976 31.8275L17.3794 32.6448L18.2117 29.6049L18.0157 29.2943C17.1924 27.9825 16.7551 26.4686 16.7551 24.9095C16.7581 20.3679 20.4524 16.6737 24.997 16.6737C27.1984 16.6737 29.2642 17.5332 30.8203 19.0893C32.3764 20.6454 33.2328 22.7171 33.2298 24.9156C33.2298 29.4602 29.5326 33.1544 24.994 33.1544ZM29.5115 26.9843C29.2642 26.8607 28.0458 26.2606 27.8197 26.1791C27.5935 26.0977 27.4276 26.0555 27.2618 26.3028C27.0959 26.5501 26.6224 27.108 26.4777 27.2738C26.3329 27.4397 26.1882 27.4608 25.9409 27.3372C25.6936 27.2135 24.8945 26.9511 23.9505 26.1068C23.2147 25.4493 22.7171 24.6381 22.5724 24.3908C22.4276 24.1435 22.5573 24.0078 22.6809 23.8842C22.7925 23.7726 22.9282 23.5947 23.0519 23.4499C23.1755 23.3052 23.2177 23.2027 23.2992 23.0368C23.3806 22.8709 23.3414 22.7262 23.278 22.6025C23.2147 22.4789 22.7201 21.2606 22.5151 20.763C22.313 20.2805 22.111 20.3468 21.9572 20.3378C21.8124 20.3317 21.6466 20.3287 21.4837 20.3287C21.3179 20.3287 21.0495 20.392 20.8233 20.6393C20.5971 20.8866 19.9578 21.4867 19.9578 22.7051C19.9578 23.9234 20.8444 25.1025 20.968 25.2654C21.0917 25.4312 22.7141 27.9312 25.199 29.0048C25.7901 29.2612 26.2515 29.4119 26.6104 29.5265C27.2045 29.7165 27.7443 29.6894 28.1695 29.6261C28.646 29.5537 29.6351 29.0259 29.8402 28.4499C30.0452 27.8709 30.0452 27.3764 29.9849 27.2738C29.9246 27.1713 29.7587 27.111 29.5115 26.9843Z" fill="white"/>
<defs>
<filter id="filter0_b" x="-20" y="-20" width="90" height="90" filterUnits="userSpaceOnUse" color-interpolation-filters="sRGB">
<feFlood flood-opacity="0" result="BackgroundImageFix"/>
<feGaussianBlur in="BackgroundImage" stdDeviation="10"/>
<feComposite in2="SourceAlpha" operator="in" result="effect1_backgroundBlur"/>
<feBlend mode="normal" in="SourceGraphic" in2="effect1_backgroundBlur" result="shape"/>
</filter>
</defs>
</svg>
